verilog ofdm_transceiver_hdl_ofdm_tx_rx_ofdm_tx_pcore_v1_00_a C:\Personal\School\Repo\cohort2_bigfish\development\integration\TX\Lab_3\EDK\pcores\ofdm_transceiver_hdl_ofdm_tx_rx_ofdm_tx_pcore_v1_00_a/hdl/verilog/ClkDiv240T.v
verilog ofdm_transceiver_hdl_ofdm_tx_rx_ofdm_tx_pcore_v1_00_a C:\Personal\School\Repo\cohort2_bigfish\development\integration\TX\Lab_3\EDK\pcores\ofdm_transceiver_hdl_ofdm_tx_rx_ofdm_tx_pcore_v1_00_a/hdl/verilog/ClkDiv30T.v
verilog ofdm_transceiver_hdl_ofdm_tx_rx_ofdm_tx_pcore_v1_00_a C:\Personal\School\Repo\cohort2_bigfish\development\integration\TX\Lab_3\EDK\pcores\ofdm_transceiver_hdl_ofdm_tx_rx_ofdm_tx_pcore_v1_00_a/hdl/verilog/Inc1Mod8W.v
verilog ofdm_transceiver_hdl_ofdm_tx_rx_ofdm_tx_pcore_v1_00_a C:\Personal\School\Repo\cohort2_bigfish\development\integration\TX\Lab_3\EDK\pcores\ofdm_transceiver_hdl_ofdm_tx_rx_ofdm_tx_pcore_v1_00_a/hdl/verilog/DataChopper.v
verilog ofdm_transceiver_hdl_ofdm_tx_rx_ofdm_tx_pcore_v1_00_a C:\Personal\School\Repo\cohort2_bigfish\development\integration\TX\Lab_3\EDK\pcores\ofdm_transceiver_hdl_ofdm_tx_rx_ofdm_tx_pcore_v1_00_a/hdl/verilog/Clk30T.v
verilog ofdm_transceiver_hdl_ofdm_tx_rx_ofdm_tx_pcore_v1_00_a C:\Personal\School\Repo\cohort2_bigfish\development\integration\TX\Lab_3\EDK\pcores\ofdm_transceiver_hdl_ofdm_tx_rx_ofdm_tx_pcore_v1_00_a/hdl/verilog/Convolutional_Encoder.v
verilog ofdm_transceiver_hdl_ofdm_tx_rx_ofdm_tx_pcore_v1_00_a C:\Personal\School\Repo\cohort2_bigfish\development\integration\TX\Lab_3\EDK\pcores\ofdm_transceiver_hdl_ofdm_tx_rx_ofdm_tx_pcore_v1_00_a/hdl/verilog/Subsystem.v
verilog ofdm_transceiver_hdl_ofdm_tx_rx_ofdm_tx_pcore_v1_00_a C:\Personal\School\Repo\cohort2_bigfish\development\integration\TX\Lab_3\EDK\pcores\ofdm_transceiver_hdl_ofdm_tx_rx_ofdm_tx_pcore_v1_00_a/hdl/verilog/FECEncode.v
verilog ofdm_transceiver_hdl_ofdm_tx_rx_ofdm_tx_pcore_v1_00_a C:\Personal\School\Repo\cohort2_bigfish\development\integration\TX\Lab_3\EDK\pcores\ofdm_transceiver_hdl_ofdm_tx_rx_ofdm_tx_pcore_v1_00_a/hdl/verilog/DIv15.v
verilog ofdm_transceiver_hdl_ofdm_tx_rx_ofdm_tx_pcore_v1_00_a C:\Personal\School\Repo\cohort2_bigfish\development\integration\TX\Lab_3\EDK\pcores\ofdm_transceiver_hdl_ofdm_tx_rx_ofdm_tx_pcore_v1_00_a/hdl/verilog/SimpleDualPortRAM_32x32b.v
verilog ofdm_transceiver_hdl_ofdm_tx_rx_ofdm_tx_pcore_v1_00_a C:\Personal\School\Repo\cohort2_bigfish\development\integration\TX\Lab_3\EDK\pcores\ofdm_transceiver_hdl_ofdm_tx_rx_ofdm_tx_pcore_v1_00_a/hdl/verilog/HDL_Streaming_FFT_stage_init_RAM.v
verilog ofdm_transceiver_hdl_ofdm_tx_rx_ofdm_tx_pcore_v1_00_a C:\Personal\School\Repo\cohort2_bigfish\development\integration\TX\Lab_3\EDK\pcores\ofdm_transceiver_hdl_ofdm_tx_rx_ofdm_tx_pcore_v1_00_a/hdl/verilog/HDL_Streaming_FFT_stage_init.v
verilog ofdm_transceiver_hdl_ofdm_tx_rx_ofdm_tx_pcore_v1_00_a C:\Personal\School\Repo\cohort2_bigfish\development\integration\TX\Lab_3\EDK\pcores\ofdm_transceiver_hdl_ofdm_tx_rx_ofdm_tx_pcore_v1_00_a/hdl/verilog/HDL_Streaming_FFT_Butterfly_DIF_Unit.v
verilog ofdm_transceiver_hdl_ofdm_tx_rx_ofdm_tx_pcore_v1_00_a C:\Personal\School\Repo\cohort2_bigfish\development\integration\TX\Lab_3\EDK\pcores\ofdm_transceiver_hdl_ofdm_tx_rx_ofdm_tx_pcore_v1_00_a/hdl/verilog/HDL_Streaming_FFT_stage_4.v
verilog ofdm_transceiver_hdl_ofdm_tx_rx_ofdm_tx_pcore_v1_00_a C:\Personal\School\Repo\cohort2_bigfish\development\integration\TX\Lab_3\EDK\pcores\ofdm_transceiver_hdl_ofdm_tx_rx_ofdm_tx_pcore_v1_00_a/hdl/verilog/HDL_Streaming_FFT_stage_3.v
verilog ofdm_transceiver_hdl_ofdm_tx_rx_ofdm_tx_pcore_v1_00_a C:\Personal\School\Repo\cohort2_bigfish\development\integration\TX\Lab_3\EDK\pcores\ofdm_transceiver_hdl_ofdm_tx_rx_ofdm_tx_pcore_v1_00_a/hdl/verilog/HDL_Streaming_FFT_stage_2.v
verilog ofdm_transceiver_hdl_ofdm_tx_rx_ofdm_tx_pcore_v1_00_a C:\Personal\School\Repo\cohort2_bigfish\development\integration\TX\Lab_3\EDK\pcores\ofdm_transceiver_hdl_ofdm_tx_rx_ofdm_tx_pcore_v1_00_a/hdl/verilog/HDL_Streaming_FFT_stage_1.v
verilog ofdm_transceiver_hdl_ofdm_tx_rx_ofdm_tx_pcore_v1_00_a C:\Personal\School\Repo\cohort2_bigfish\development\integration\TX\Lab_3\EDK\pcores\ofdm_transceiver_hdl_ofdm_tx_rx_ofdm_tx_pcore_v1_00_a/hdl/verilog/HDL_Streaming_FFT_Butterfly_DIF_Unit_Simple.v
verilog ofdm_transceiver_hdl_ofdm_tx_rx_ofdm_tx_pcore_v1_00_a C:\Personal\School\Repo\cohort2_bigfish\development\integration\TX\Lab_3\EDK\pcores\ofdm_transceiver_hdl_ofdm_tx_rx_ofdm_tx_pcore_v1_00_a/hdl/verilog/HDL_Streaming_FFT_stage_0.v
verilog ofdm_transceiver_hdl_ofdm_tx_rx_ofdm_tx_pcore_v1_00_a C:\Personal\School\Repo\cohort2_bigfish\development\integration\TX\Lab_3\EDK\pcores\ofdm_transceiver_hdl_ofdm_tx_rx_ofdm_tx_pcore_v1_00_a/hdl/verilog/HDL_Streaming_FFT_stage_end.v
verilog ofdm_transceiver_hdl_ofdm_tx_rx_ofdm_tx_pcore_v1_00_a C:\Personal\School\Repo\cohort2_bigfish\development\integration\TX\Lab_3\EDK\pcores\ofdm_transceiver_hdl_ofdm_tx_rx_ofdm_tx_pcore_v1_00_a/hdl/verilog/HDL_Streaming_FFT.v
verilog ofdm_transceiver_hdl_ofdm_tx_rx_ofdm_tx_pcore_v1_00_a C:\Personal\School\Repo\cohort2_bigfish\development\integration\TX\Lab_3\EDK\pcores\ofdm_transceiver_hdl_ofdm_tx_rx_ofdm_tx_pcore_v1_00_a/hdl/verilog/IFFT.v
verilog ofdm_transceiver_hdl_ofdm_tx_rx_ofdm_tx_pcore_v1_00_a C:\Personal\School\Repo\cohort2_bigfish\development\integration\TX\Lab_3\EDK\pcores\ofdm_transceiver_hdl_ofdm_tx_rx_ofdm_tx_pcore_v1_00_a/hdl/verilog/Div10.v
verilog ofdm_transceiver_hdl_ofdm_tx_rx_ofdm_tx_pcore_v1_00_a C:\Personal\School\Repo\cohort2_bigfish\development\integration\TX\Lab_3\EDK\pcores\ofdm_transceiver_hdl_ofdm_tx_rx_ofdm_tx_pcore_v1_00_a/hdl/verilog/Div5.v
verilog ofdm_transceiver_hdl_ofdm_tx_rx_ofdm_tx_pcore_v1_00_a C:\Personal\School\Repo\cohort2_bigfish\development\integration\TX\Lab_3\EDK\pcores\ofdm_transceiver_hdl_ofdm_tx_rx_ofdm_tx_pcore_v1_00_a/hdl/verilog/Inc1Mod2.v
verilog ofdm_transceiver_hdl_ofdm_tx_rx_ofdm_tx_pcore_v1_00_a C:\Personal\School\Repo\cohort2_bigfish\development\integration\TX\Lab_3\EDK\pcores\ofdm_transceiver_hdl_ofdm_tx_rx_ofdm_tx_pcore_v1_00_a/hdl/verilog/IQInterleaver.v
verilog ofdm_transceiver_hdl_ofdm_tx_rx_ofdm_tx_pcore_v1_00_a C:\Personal\School\Repo\cohort2_bigfish\development\integration\TX\Lab_3\EDK\pcores\ofdm_transceiver_hdl_ofdm_tx_rx_ofdm_tx_pcore_v1_00_a/hdl/verilog/DIv12.v
verilog ofdm_transceiver_hdl_ofdm_tx_rx_ofdm_tx_pcore_v1_00_a C:\Personal\School\Repo\cohort2_bigfish\development\integration\TX\Lab_3\EDK\pcores\ofdm_transceiver_hdl_ofdm_tx_rx_ofdm_tx_pcore_v1_00_a/hdl/verilog/Div15_block.v
verilog ofdm_transceiver_hdl_ofdm_tx_rx_ofdm_tx_pcore_v1_00_a C:\Personal\School\Repo\cohort2_bigfish\development\integration\TX\Lab_3\EDK\pcores\ofdm_transceiver_hdl_ofdm_tx_rx_ofdm_tx_pcore_v1_00_a/hdl/verilog/Inc1Mod40R.v
verilog ofdm_transceiver_hdl_ofdm_tx_rx_ofdm_tx_pcore_v1_00_a C:\Personal\School\Repo\cohort2_bigfish\development\integration\TX\Lab_3\EDK\pcores\ofdm_transceiver_hdl_ofdm_tx_rx_ofdm_tx_pcore_v1_00_a/hdl/verilog/Inc1Mod64W.v
verilog ofdm_transceiver_hdl_ofdm_tx_rx_ofdm_tx_pcore_v1_00_a C:\Personal\School\Repo\cohort2_bigfish\development\integration\TX\Lab_3\EDK\pcores\ofdm_transceiver_hdl_ofdm_tx_rx_ofdm_tx_pcore_v1_00_a/hdl/verilog/Inc1Mod80R.v
verilog ofdm_transceiver_hdl_ofdm_tx_rx_ofdm_tx_pcore_v1_00_a C:\Personal\School\Repo\cohort2_bigfish\development\integration\TX\Lab_3\EDK\pcores\ofdm_transceiver_hdl_ofdm_tx_rx_ofdm_tx_pcore_v1_00_a/hdl/verilog/DualPortRAM_32x32b.v
verilog ofdm_transceiver_hdl_ofdm_tx_rx_ofdm_tx_pcore_v1_00_a C:\Personal\School\Repo\cohort2_bigfish\development\integration\TX\Lab_3\EDK\pcores\ofdm_transceiver_hdl_ofdm_tx_rx_ofdm_tx_pcore_v1_00_a/hdl/verilog/DualPortRAM_Inst0.v
verilog ofdm_transceiver_hdl_ofdm_tx_rx_ofdm_tx_pcore_v1_00_a C:\Personal\School\Repo\cohort2_bigfish\development\integration\TX\Lab_3\EDK\pcores\ofdm_transceiver_hdl_ofdm_tx_rx_ofdm_tx_pcore_v1_00_a/hdl/verilog/InsertCyclicPrefix.v
verilog ofdm_transceiver_hdl_ofdm_tx_rx_ofdm_tx_pcore_v1_00_a C:\Personal\School\Repo\cohort2_bigfish\development\integration\TX\Lab_3\EDK\pcores\ofdm_transceiver_hdl_ofdm_tx_rx_ofdm_tx_pcore_v1_00_a/hdl/verilog/Clk10T.v
verilog ofdm_transceiver_hdl_ofdm_tx_rx_ofdm_tx_pcore_v1_00_a C:\Personal\School\Repo\cohort2_bigfish\development\integration\TX\Lab_3\EDK\pcores\ofdm_transceiver_hdl_ofdm_tx_rx_ofdm_tx_pcore_v1_00_a/hdl/verilog/Clk12T.v
verilog ofdm_transceiver_hdl_ofdm_tx_rx_ofdm_tx_pcore_v1_00_a C:\Personal\School\Repo\cohort2_bigfish\development\integration\TX\Lab_3\EDK\pcores\ofdm_transceiver_hdl_ofdm_tx_rx_ofdm_tx_pcore_v1_00_a/hdl/verilog/Clk12T_block.v
verilog ofdm_transceiver_hdl_ofdm_tx_rx_ofdm_tx_pcore_v1_00_a C:\Personal\School\Repo\cohort2_bigfish\development\integration\TX\Lab_3\EDK\pcores\ofdm_transceiver_hdl_ofdm_tx_rx_ofdm_tx_pcore_v1_00_a/hdl/verilog/Delay2.v
verilog ofdm_transceiver_hdl_ofdm_tx_rx_ofdm_tx_pcore_v1_00_a C:\Personal\School\Repo\cohort2_bigfish\development\integration\TX\Lab_3\EDK\pcores\ofdm_transceiver_hdl_ofdm_tx_rx_ofdm_tx_pcore_v1_00_a/hdl/verilog/Delay6.v
verilog ofdm_transceiver_hdl_ofdm_tx_rx_ofdm_tx_pcore_v1_00_a C:\Personal\School\Repo\cohort2_bigfish\development\integration\TX\Lab_3\EDK\pcores\ofdm_transceiver_hdl_ofdm_tx_rx_ofdm_tx_pcore_v1_00_a/hdl/verilog/Inc1Mod1600W.v
verilog ofdm_transceiver_hdl_ofdm_tx_rx_ofdm_tx_pcore_v1_00_a C:\Personal\School\Repo\cohort2_bigfish\development\integration\TX\Lab_3\EDK\pcores\ofdm_transceiver_hdl_ofdm_tx_rx_ofdm_tx_pcore_v1_00_a/hdl/verilog/Inc1Mod160W.v
verilog ofdm_transceiver_hdl_ofdm_tx_rx_ofdm_tx_pcore_v1_00_a C:\Personal\School\Repo\cohort2_bigfish\development\integration\TX\Lab_3\EDK\pcores\ofdm_transceiver_hdl_ofdm_tx_rx_ofdm_tx_pcore_v1_00_a/hdl/verilog/Inc1Mod1920R.v
verilog ofdm_transceiver_hdl_ofdm_tx_rx_ofdm_tx_pcore_v1_00_a C:\Personal\School\Repo\cohort2_bigfish\development\integration\TX\Lab_3\EDK\pcores\ofdm_transceiver_hdl_ofdm_tx_rx_ofdm_tx_pcore_v1_00_a/hdl/verilog/Inc1Mod800W.v
verilog ofdm_transceiver_hdl_ofdm_tx_rx_ofdm_tx_pcore_v1_00_a C:\Personal\School\Repo\cohort2_bigfish\development\integration\TX\Lab_3\EDK\pcores\ofdm_transceiver_hdl_ofdm_tx_rx_ofdm_tx_pcore_v1_00_a/hdl/verilog/Inc1Mod960R1.v
verilog ofdm_transceiver_hdl_ofdm_tx_rx_ofdm_tx_pcore_v1_00_a C:\Personal\School\Repo\cohort2_bigfish\development\integration\TX\Lab_3\EDK\pcores\ofdm_transceiver_hdl_ofdm_tx_rx_ofdm_tx_pcore_v1_00_a/hdl/verilog/DualPortRAM_1024x32b.v
verilog ofdm_transceiver_hdl_ofdm_tx_rx_ofdm_tx_pcore_v1_00_a C:\Personal\School\Repo\cohort2_bigfish\development\integration\TX\Lab_3\EDK\pcores\ofdm_transceiver_hdl_ofdm_tx_rx_ofdm_tx_pcore_v1_00_a/hdl/verilog/DualPortRAM_Inst2.v
verilog ofdm_transceiver_hdl_ofdm_tx_rx_ofdm_tx_pcore_v1_00_a C:\Personal\School\Repo\cohort2_bigfish\development\integration\TX\Lab_3\EDK\pcores\ofdm_transceiver_hdl_ofdm_tx_rx_ofdm_tx_pcore_v1_00_a/hdl/verilog/InsertHeader.v
verilog ofdm_transceiver_hdl_ofdm_tx_rx_ofdm_tx_pcore_v1_00_a C:\Personal\School\Repo\cohort2_bigfish\development\integration\TX\Lab_3\EDK\pcores\ofdm_transceiver_hdl_ofdm_tx_rx_ofdm_tx_pcore_v1_00_a/hdl/verilog/Clk15T.v
verilog ofdm_transceiver_hdl_ofdm_tx_rx_ofdm_tx_pcore_v1_00_a C:\Personal\School\Repo\cohort2_bigfish\development\integration\TX\Lab_3\EDK\pcores\ofdm_transceiver_hdl_ofdm_tx_rx_ofdm_tx_pcore_v1_00_a/hdl/verilog/Clk24T.v
verilog ofdm_transceiver_hdl_ofdm_tx_rx_ofdm_tx_pcore_v1_00_a C:\Personal\School\Repo\cohort2_bigfish\development\integration\TX\Lab_3\EDK\pcores\ofdm_transceiver_hdl_ofdm_tx_rx_ofdm_tx_pcore_v1_00_a/hdl/verilog/Inc1Mod20W.v
verilog ofdm_transceiver_hdl_ofdm_tx_rx_ofdm_tx_pcore_v1_00_a C:\Personal\School\Repo\cohort2_bigfish\development\integration\TX\Lab_3\EDK\pcores\ofdm_transceiver_hdl_ofdm_tx_rx_ofdm_tx_pcore_v1_00_a/hdl/verilog/Inc1Mod40W.v
verilog ofdm_transceiver_hdl_ofdm_tx_rx_ofdm_tx_pcore_v1_00_a C:\Personal\School\Repo\cohort2_bigfish\development\integration\TX\Lab_3\EDK\pcores\ofdm_transceiver_hdl_ofdm_tx_rx_ofdm_tx_pcore_v1_00_a/hdl/verilog/Inc1Mod64R.v
verilog ofdm_transceiver_hdl_ofdm_tx_rx_ofdm_tx_pcore_v1_00_a C:\Personal\School\Repo\cohort2_bigfish\development\integration\TX\Lab_3\EDK\pcores\ofdm_transceiver_hdl_ofdm_tx_rx_ofdm_tx_pcore_v1_00_a/hdl/verilog/InsertNullPilot.v
verilog ofdm_transceiver_hdl_ofdm_tx_rx_ofdm_tx_pcore_v1_00_a C:\Personal\School\Repo\cohort2_bigfish\development\integration\TX\Lab_3\EDK\pcores\ofdm_transceiver_hdl_ofdm_tx_rx_ofdm_tx_pcore_v1_00_a/hdl/verilog/Clk24T1.v
verilog ofdm_transceiver_hdl_ofdm_tx_rx_ofdm_tx_pcore_v1_00_a C:\Personal\School\Repo\cohort2_bigfish\development\integration\TX\Lab_3\EDK\pcores\ofdm_transceiver_hdl_ofdm_tx_rx_ofdm_tx_pcore_v1_00_a/hdl/verilog/Clk30T_block.v
verilog ofdm_transceiver_hdl_ofdm_tx_rx_ofdm_tx_pcore_v1_00_a C:\Personal\School\Repo\cohort2_bigfish\development\integration\TX\Lab_3\EDK\pcores\ofdm_transceiver_hdl_ofdm_tx_rx_ofdm_tx_pcore_v1_00_a/hdl/verilog/Clk30T_block1.v
verilog ofdm_transceiver_hdl_ofdm_tx_rx_ofdm_tx_pcore_v1_00_a C:\Personal\School\Repo\cohort2_bigfish\development\integration\TX\Lab_3\EDK\pcores\ofdm_transceiver_hdl_ofdm_tx_rx_ofdm_tx_pcore_v1_00_a/hdl/verilog/Delay2_block.v
verilog ofdm_transceiver_hdl_ofdm_tx_rx_ofdm_tx_pcore_v1_00_a C:\Personal\School\Repo\cohort2_bigfish\development\integration\TX\Lab_3\EDK\pcores\ofdm_transceiver_hdl_ofdm_tx_rx_ofdm_tx_pcore_v1_00_a/hdl/verilog/Delay6_block.v
verilog ofdm_transceiver_hdl_ofdm_tx_rx_ofdm_tx_pcore_v1_00_a C:\Personal\School\Repo\cohort2_bigfish\development\integration\TX\Lab_3\EDK\pcores\ofdm_transceiver_hdl_ofdm_tx_rx_ofdm_tx_pcore_v1_00_a/hdl/verilog/Inc1Mod320W.v
verilog ofdm_transceiver_hdl_ofdm_tx_rx_ofdm_tx_pcore_v1_00_a C:\Personal\School\Repo\cohort2_bigfish\development\integration\TX\Lab_3\EDK\pcores\ofdm_transceiver_hdl_ofdm_tx_rx_ofdm_tx_pcore_v1_00_a/hdl/verilog/Inc1Mod400R1.v
verilog ofdm_transceiver_hdl_ofdm_tx_rx_ofdm_tx_pcore_v1_00_a C:\Personal\School\Repo\cohort2_bigfish\development\integration\TX\Lab_3\EDK\pcores\ofdm_transceiver_hdl_ofdm_tx_rx_ofdm_tx_pcore_v1_00_a/hdl/verilog/Inc1Mod640W.v
verilog ofdm_transceiver_hdl_ofdm_tx_rx_ofdm_tx_pcore_v1_00_a C:\Personal\School\Repo\cohort2_bigfish\development\integration\TX\Lab_3\EDK\pcores\ofdm_transceiver_hdl_ofdm_tx_rx_ofdm_tx_pcore_v1_00_a/hdl/verilog/Inc1Mod800R.v
verilog ofdm_transceiver_hdl_ofdm_tx_rx_ofdm_tx_pcore_v1_00_a C:\Personal\School\Repo\cohort2_bigfish\development\integration\TX\Lab_3\EDK\pcores\ofdm_transceiver_hdl_ofdm_tx_rx_ofdm_tx_pcore_v1_00_a/hdl/verilog/Inc1Mod80W.v
verilog ofdm_transceiver_hdl_ofdm_tx_rx_ofdm_tx_pcore_v1_00_a C:\Personal\School\Repo\cohort2_bigfish\development\integration\TX\Lab_3\EDK\pcores\ofdm_transceiver_hdl_ofdm_tx_rx_ofdm_tx_pcore_v1_00_a/hdl/verilog/InsertTrnSeqEQ.v
verilog ofdm_transceiver_hdl_ofdm_tx_rx_ofdm_tx_pcore_v1_00_a C:\Personal\School\Repo\cohort2_bigfish\development\integration\TX\Lab_3\EDK\pcores\ofdm_transceiver_hdl_ofdm_tx_rx_ofdm_tx_pcore_v1_00_a/hdl/verilog/Modulator.v
verilog ofdm_transceiver_hdl_ofdm_tx_rx_ofdm_tx_pcore_v1_00_a C:\Personal\School\Repo\cohort2_bigfish\development\integration\TX\Lab_3\EDK\pcores\ofdm_transceiver_hdl_ofdm_tx_rx_ofdm_tx_pcore_v1_00_a/hdl/verilog/OFDM_TX_tc.v
verilog ofdm_transceiver_hdl_ofdm_tx_rx_ofdm_tx_pcore_v1_00_a C:\Personal\School\Repo\cohort2_bigfish\development\integration\TX\Lab_3\EDK\pcores\ofdm_transceiver_hdl_ofdm_tx_rx_ofdm_tx_pcore_v1_00_a/hdl/verilog/OFDM_TX.v
verilog ofdm_transceiver_hdl_ofdm_tx_rx_ofdm_tx_pcore_v1_00_a C:\Personal\School\Repo\cohort2_bigfish\development\integration\TX\Lab_3\EDK\pcores\ofdm_transceiver_hdl_ofdm_tx_rx_ofdm_tx_pcore_v1_00_a/hdl/verilog/ofdm_transceiver_hdl_ofdm_tx_rx_ofdm_tx_pcore_dut.v
verilog ofdm_transceiver_hdl_ofdm_tx_rx_ofdm_tx_pcore_v1_00_a C:\Personal\School\Repo\cohort2_bigfish\development\integration\TX\Lab_3\EDK\pcores\ofdm_transceiver_hdl_ofdm_tx_rx_ofdm_tx_pcore_v1_00_a/hdl/verilog/ofdm_transceiver_hdl_ofdm_tx_rx_ofdm_tx_pcore_axi_lite_module.v
verilog ofdm_transceiver_hdl_ofdm_tx_rx_ofdm_tx_pcore_v1_00_a C:\Personal\School\Repo\cohort2_bigfish\development\integration\TX\Lab_3\EDK\pcores\ofdm_transceiver_hdl_ofdm_tx_rx_ofdm_tx_pcore_v1_00_a/hdl/verilog/ofdm_transceiver_hdl_ofdm_tx_rx_ofdm_tx_pcore_addr_decoder.v
verilog ofdm_transceiver_hdl_ofdm_tx_rx_ofdm_tx_pcore_v1_00_a C:\Personal\School\Repo\cohort2_bigfish\development\integration\TX\Lab_3\EDK\pcores\ofdm_transceiver_hdl_ofdm_tx_rx_ofdm_tx_pcore_v1_00_a/hdl/verilog/ofdm_transceiver_hdl_ofdm_tx_rx_ofdm_tx_pcore_axi_lite.v
verilog ofdm_transceiver_hdl_ofdm_tx_rx_ofdm_tx_pcore_v1_00_a C:\Personal\School\Repo\cohort2_bigfish\development\integration\TX\Lab_3\EDK\pcores\ofdm_transceiver_hdl_ofdm_tx_rx_ofdm_tx_pcore_v1_00_a/hdl/verilog/ofdm_transceiver_hdl_ofdm_tx_rx_ofdm_tx_pcore.v
verilog ofdm_transceiver_hdl_ofdm_tx_rx_ofdm_tx_pcore_v1_00_a C:\Personal\School\Repo\cohort2_bigfish\development\integration\TX\Lab_3\EDK\pcores\ofdm_transceiver_hdl_ofdm_tx_rx_ofdm_tx_pcore_v1_00_a/hdl/verilog/chipscope_ila_t8_64.v
verilog ofdm_transceiver_hdl_ofdm_tx_rx_ofdm_tx_pcore_v1_00_a C:\Personal\School\Repo\cohort2_bigfish\development\integration\TX\Lab_3\EDK\pcores\ofdm_transceiver_hdl_ofdm_tx_rx_ofdm_tx_pcore_v1_00_a/hdl/verilog/chipscope_ila_t8_512.v
verilog ofdm_transceiver_hdl_ofdm_tx_rx_ofdm_tx_pcore_v1_00_a C:\Personal\School\Repo\cohort2_bigfish\development\integration\TX\Lab_3\EDK\pcores\ofdm_transceiver_hdl_ofdm_tx_rx_ofdm_tx_pcore_v1_00_a/hdl/verilog/chipscope_icon_1.v
verilog ofdm_transceiver_hdl_ofdm_tx_rx_ofdm_tx_pcore_v1_00_a C:\Personal\School\Repo\cohort2_bigfish\development\integration\TX\Lab_3\EDK\pcores\ofdm_transceiver_hdl_ofdm_tx_rx_ofdm_tx_pcore_v1_00_a/hdl/verilog/chipscope_ila_t8_64_65536.v
verilog ofdm_transceiver_hdl_ofdm_tx_rx_ofdm_tx_pcore_v1_00_a C:\Personal\School\Repo\cohort2_bigfish\development\integration\TX\Lab_3\EDK\pcores\ofdm_transceiver_hdl_ofdm_tx_rx_ofdm_tx_pcore_v1_00_a/hdl/verilog/chipscope_ila_t8_256_8192.v
verilog ofdm_transceiver_hdl_ofdm_tx_rx_ofdm_tx_pcore_v1_00_a C:\Personal\School\Repo\cohort2_bigfish\development\integration\TX\Lab_3\EDK\pcores\ofdm_transceiver_hdl_ofdm_tx_rx_ofdm_tx_pcore_v1_00_a/hdl/verilog/chipscope_ila_t8_128_16384.v
verilog ofdm_transceiver_hdl_ofdm_tx_rx_ofdm_tx_pcore_v1_00_a C:\Personal\School\Repo\cohort2_bigfish\development\integration\TX\Lab_3\EDK\pcores\ofdm_transceiver_hdl_ofdm_tx_rx_ofdm_tx_pcore_v1_00_a/hdl/verilog/chipscope_ila_t8_128_32768.v
verilog work ../hdl/system_ofdm_tx_wrapper.v
