verilog ofdm_transceiver_hdl_tx_pcore_v1_00_a C:\Personal\School\Lab_3\EDK\pcores\ofdm_transceiver_hdl_tx_pcore_v1_00_a/hdl/verilog/SimpleDualPortRAM_32x32b.v
verilog ofdm_transceiver_hdl_tx_pcore_v1_00_a C:\Personal\School\Lab_3\EDK\pcores\ofdm_transceiver_hdl_tx_pcore_v1_00_a/hdl/verilog/HDL_Streaming_FFT_stage_init_RAM.v
verilog ofdm_transceiver_hdl_tx_pcore_v1_00_a C:\Personal\School\Lab_3\EDK\pcores\ofdm_transceiver_hdl_tx_pcore_v1_00_a/hdl/verilog/HDL_Streaming_FFT_stage_init.v
verilog ofdm_transceiver_hdl_tx_pcore_v1_00_a C:\Personal\School\Lab_3\EDK\pcores\ofdm_transceiver_hdl_tx_pcore_v1_00_a/hdl/verilog/HDL_Streaming_FFT_Butterfly_DIF_Unit.v
verilog ofdm_transceiver_hdl_tx_pcore_v1_00_a C:\Personal\School\Lab_3\EDK\pcores\ofdm_transceiver_hdl_tx_pcore_v1_00_a/hdl/verilog/HDL_Streaming_FFT_stage_4.v
verilog ofdm_transceiver_hdl_tx_pcore_v1_00_a C:\Personal\School\Lab_3\EDK\pcores\ofdm_transceiver_hdl_tx_pcore_v1_00_a/hdl/verilog/HDL_Streaming_FFT_stage_3.v
verilog ofdm_transceiver_hdl_tx_pcore_v1_00_a C:\Personal\School\Lab_3\EDK\pcores\ofdm_transceiver_hdl_tx_pcore_v1_00_a/hdl/verilog/HDL_Streaming_FFT_stage_2.v
verilog ofdm_transceiver_hdl_tx_pcore_v1_00_a C:\Personal\School\Lab_3\EDK\pcores\ofdm_transceiver_hdl_tx_pcore_v1_00_a/hdl/verilog/HDL_Streaming_FFT_stage_1.v
verilog ofdm_transceiver_hdl_tx_pcore_v1_00_a C:\Personal\School\Lab_3\EDK\pcores\ofdm_transceiver_hdl_tx_pcore_v1_00_a/hdl/verilog/HDL_Streaming_FFT_Butterfly_DIF_Unit_Simple.v
verilog ofdm_transceiver_hdl_tx_pcore_v1_00_a C:\Personal\School\Lab_3\EDK\pcores\ofdm_transceiver_hdl_tx_pcore_v1_00_a/hdl/verilog/HDL_Streaming_FFT_stage_0.v
verilog ofdm_transceiver_hdl_tx_pcore_v1_00_a C:\Personal\School\Lab_3\EDK\pcores\ofdm_transceiver_hdl_tx_pcore_v1_00_a/hdl/verilog/HDL_Streaming_FFT_stage_end.v
verilog ofdm_transceiver_hdl_tx_pcore_v1_00_a C:\Personal\School\Lab_3\EDK\pcores\ofdm_transceiver_hdl_tx_pcore_v1_00_a/hdl/verilog/HDL_Streaming_FFT.v
verilog ofdm_transceiver_hdl_tx_pcore_v1_00_a C:\Personal\School\Lab_3\EDK\pcores\ofdm_transceiver_hdl_tx_pcore_v1_00_a/hdl/verilog/IFFT.v
verilog ofdm_transceiver_hdl_tx_pcore_v1_00_a C:\Personal\School\Lab_3\EDK\pcores\ofdm_transceiver_hdl_tx_pcore_v1_00_a/hdl/verilog/DIv4.v
verilog ofdm_transceiver_hdl_tx_pcore_v1_00_a C:\Personal\School\Lab_3\EDK\pcores\ofdm_transceiver_hdl_tx_pcore_v1_00_a/hdl/verilog/Div5.v
verilog ofdm_transceiver_hdl_tx_pcore_v1_00_a C:\Personal\School\Lab_3\EDK\pcores\ofdm_transceiver_hdl_tx_pcore_v1_00_a/hdl/verilog/Inc1Mod40R.v
verilog ofdm_transceiver_hdl_tx_pcore_v1_00_a C:\Personal\School\Lab_3\EDK\pcores\ofdm_transceiver_hdl_tx_pcore_v1_00_a/hdl/verilog/Inc1Mod64W.v
verilog ofdm_transceiver_hdl_tx_pcore_v1_00_a C:\Personal\School\Lab_3\EDK\pcores\ofdm_transceiver_hdl_tx_pcore_v1_00_a/hdl/verilog/Inc1Mod80R.v
verilog ofdm_transceiver_hdl_tx_pcore_v1_00_a C:\Personal\School\Lab_3\EDK\pcores\ofdm_transceiver_hdl_tx_pcore_v1_00_a/hdl/verilog/DualPortRAM_32x32b.v
verilog ofdm_transceiver_hdl_tx_pcore_v1_00_a C:\Personal\School\Lab_3\EDK\pcores\ofdm_transceiver_hdl_tx_pcore_v1_00_a/hdl/verilog/DualPortRAM_Inst0.v
verilog ofdm_transceiver_hdl_tx_pcore_v1_00_a C:\Personal\School\Lab_3\EDK\pcores\ofdm_transceiver_hdl_tx_pcore_v1_00_a/hdl/verilog/Insert_CyclicPrefix.v
verilog ofdm_transceiver_hdl_tx_pcore_v1_00_a C:\Personal\School\Lab_3\EDK\pcores\ofdm_transceiver_hdl_tx_pcore_v1_00_a/hdl/verilog/Clk5T.v
verilog ofdm_transceiver_hdl_tx_pcore_v1_00_a C:\Personal\School\Lab_3\EDK\pcores\ofdm_transceiver_hdl_tx_pcore_v1_00_a/hdl/verilog/Clk8T.v
verilog ofdm_transceiver_hdl_tx_pcore_v1_00_a C:\Personal\School\Lab_3\EDK\pcores\ofdm_transceiver_hdl_tx_pcore_v1_00_a/hdl/verilog/Inc1Mod20W.v
verilog ofdm_transceiver_hdl_tx_pcore_v1_00_a C:\Personal\School\Lab_3\EDK\pcores\ofdm_transceiver_hdl_tx_pcore_v1_00_a/hdl/verilog/Inc1Mod40W.v
verilog ofdm_transceiver_hdl_tx_pcore_v1_00_a C:\Personal\School\Lab_3\EDK\pcores\ofdm_transceiver_hdl_tx_pcore_v1_00_a/hdl/verilog/Inc1Mod64R.v
verilog ofdm_transceiver_hdl_tx_pcore_v1_00_a C:\Personal\School\Lab_3\EDK\pcores\ofdm_transceiver_hdl_tx_pcore_v1_00_a/hdl/verilog/Insert_Null_Pilot.v
verilog ofdm_transceiver_hdl_tx_pcore_v1_00_a C:\Personal\School\Lab_3\EDK\pcores\ofdm_transceiver_hdl_tx_pcore_v1_00_a/hdl/verilog/QAM_Modulator.v
verilog ofdm_transceiver_hdl_tx_pcore_v1_00_a C:\Personal\School\Lab_3\EDK\pcores\ofdm_transceiver_hdl_tx_pcore_v1_00_a/hdl/verilog/Tx_tc.v
verilog ofdm_transceiver_hdl_tx_pcore_v1_00_a C:\Personal\School\Lab_3\EDK\pcores\ofdm_transceiver_hdl_tx_pcore_v1_00_a/hdl/verilog/Tx.v
verilog ofdm_transceiver_hdl_tx_pcore_v1_00_a C:\Personal\School\Lab_3\EDK\pcores\ofdm_transceiver_hdl_tx_pcore_v1_00_a/hdl/verilog/ofdm_transceiver_hdl_tx_pcore_dut.v
verilog ofdm_transceiver_hdl_tx_pcore_v1_00_a C:\Personal\School\Lab_3\EDK\pcores\ofdm_transceiver_hdl_tx_pcore_v1_00_a/hdl/verilog/ofdm_transceiver_hdl_tx_pcore_axi_lite_module.v
verilog ofdm_transceiver_hdl_tx_pcore_v1_00_a C:\Personal\School\Lab_3\EDK\pcores\ofdm_transceiver_hdl_tx_pcore_v1_00_a/hdl/verilog/ofdm_transceiver_hdl_tx_pcore_addr_decoder.v
verilog ofdm_transceiver_hdl_tx_pcore_v1_00_a C:\Personal\School\Lab_3\EDK\pcores\ofdm_transceiver_hdl_tx_pcore_v1_00_a/hdl/verilog/ofdm_transceiver_hdl_tx_pcore_axi_lite.v
verilog ofdm_transceiver_hdl_tx_pcore_v1_00_a C:\Personal\School\Lab_3\EDK\pcores\ofdm_transceiver_hdl_tx_pcore_v1_00_a/hdl/verilog/ofdm_transceiver_hdl_tx_pcore.v
verilog ofdm_transceiver_hdl_tx_pcore_v1_00_a C:\Personal\School\Lab_3\EDK\pcores\ofdm_transceiver_hdl_tx_pcore_v1_00_a/hdl/verilog/chipscope_ila_t8_64.v
verilog ofdm_transceiver_hdl_tx_pcore_v1_00_a C:\Personal\School\Lab_3\EDK\pcores\ofdm_transceiver_hdl_tx_pcore_v1_00_a/hdl/verilog/chipscope_ila_t8_512.v
verilog ofdm_transceiver_hdl_tx_pcore_v1_00_a C:\Personal\School\Lab_3\EDK\pcores\ofdm_transceiver_hdl_tx_pcore_v1_00_a/hdl/verilog/chipscope_icon_1.v
verilog work ../hdl/system_ofdm_transceiver_hdl_tx_wrapper.v
