vhdl proc_common_v3_00_a C:\Xilinx\14.7\ISE_DS\EDK\hw\XilinxProcessorIPLib\pcores\proc_common_v3_00_a/hdl/vhdl/family.vhd
vhdl proc_common_v3_00_a C:\Xilinx\14.7\ISE_DS\EDK\hw\XilinxProcessorIPLib\pcores\proc_common_v3_00_a/hdl/vhdl/family_support.vhd
vhdl proc_common_v3_00_a C:\Xilinx\14.7\ISE_DS\EDK\hw\XilinxProcessorIPLib\pcores\proc_common_v3_00_a/hdl/vhdl/coregen_comp_defs.vhd
vhdl proc_common_v3_00_a C:\Xilinx\14.7\ISE_DS\EDK\hw\XilinxProcessorIPLib\pcores\proc_common_v3_00_a/hdl/vhdl/common_types_pkg.vhd
vhdl proc_common_v3_00_a C:\Xilinx\14.7\ISE_DS\EDK\hw\XilinxProcessorIPLib\pcores\proc_common_v3_00_a/hdl/vhdl/proc_common_pkg.vhd
vhdl proc_common_v3_00_a C:\Xilinx\14.7\ISE_DS\EDK\hw\XilinxProcessorIPLib\pcores\proc_common_v3_00_a/hdl/vhdl/conv_funs_pkg.vhd
vhdl proc_common_v3_00_a C:\Xilinx\14.7\ISE_DS\EDK\hw\XilinxProcessorIPLib\pcores\proc_common_v3_00_a/hdl/vhdl/ipif_pkg.vhd
vhdl proc_common_v3_00_a C:\Xilinx\14.7\ISE_DS\EDK\hw\XilinxProcessorIPLib\pcores\proc_common_v3_00_a/hdl/vhdl/async_fifo_fg.vhd
vhdl proc_common_v3_00_a C:\Xilinx\14.7\ISE_DS\EDK\hw\XilinxProcessorIPLib\pcores\proc_common_v3_00_a/hdl/vhdl/sync_fifo_fg.vhd
vhdl proc_common_v3_00_a C:\Xilinx\14.7\ISE_DS\EDK\hw\XilinxProcessorIPLib\pcores\proc_common_v3_00_a/hdl/vhdl/basic_sfifo_fg.vhd
vhdl proc_common_v3_00_a C:\Xilinx\14.7\ISE_DS\EDK\hw\XilinxProcessorIPLib\pcores\proc_common_v3_00_a/hdl/vhdl/blk_mem_gen_wrapper.vhd
vhdl proc_common_v3_00_a C:\Xilinx\14.7\ISE_DS\EDK\hw\XilinxProcessorIPLib\pcores\proc_common_v3_00_a/hdl/vhdl/addsub.vhd
vhdl proc_common_v3_00_a C:\Xilinx\14.7\ISE_DS\EDK\hw\XilinxProcessorIPLib\pcores\proc_common_v3_00_a/hdl/vhdl/counter_bit.vhd
vhdl proc_common_v3_00_a C:\Xilinx\14.7\ISE_DS\EDK\hw\XilinxProcessorIPLib\pcores\proc_common_v3_00_a/hdl/vhdl/counter.vhd
vhdl proc_common_v3_00_a C:\Xilinx\14.7\ISE_DS\EDK\hw\XilinxProcessorIPLib\pcores\proc_common_v3_00_a/hdl/vhdl/direct_path_cntr.vhd
vhdl proc_common_v3_00_a C:\Xilinx\14.7\ISE_DS\EDK\hw\XilinxProcessorIPLib\pcores\proc_common_v3_00_a/hdl/vhdl/direct_path_cntr_ai.vhd
vhdl proc_common_v3_00_a C:\Xilinx\14.7\ISE_DS\EDK\hw\XilinxProcessorIPLib\pcores\proc_common_v3_00_a/hdl/vhdl/down_counter.vhd
vhdl proc_common_v3_00_a C:\Xilinx\14.7\ISE_DS\EDK\hw\XilinxProcessorIPLib\pcores\proc_common_v3_00_a/hdl/vhdl/eval_timer.vhd
vhdl proc_common_v3_00_a C:\Xilinx\14.7\ISE_DS\EDK\hw\XilinxProcessorIPLib\pcores\proc_common_v3_00_a/hdl/vhdl/inferred_lut4.vhd
vhdl proc_common_v3_00_a C:\Xilinx\14.7\ISE_DS\EDK\hw\XilinxProcessorIPLib\pcores\proc_common_v3_00_a/hdl/vhdl/ipif_steer.vhd
vhdl proc_common_v3_00_a C:\Xilinx\14.7\ISE_DS\EDK\hw\XilinxProcessorIPLib\pcores\proc_common_v3_00_a/hdl/vhdl/ipif_steer128.vhd
vhdl proc_common_v3_00_a C:\Xilinx\14.7\ISE_DS\EDK\hw\XilinxProcessorIPLib\pcores\proc_common_v3_00_a/hdl/vhdl/ipif_mirror128.vhd
vhdl proc_common_v3_00_a C:\Xilinx\14.7\ISE_DS\EDK\hw\XilinxProcessorIPLib\pcores\proc_common_v3_00_a/hdl/vhdl/ld_arith_reg.vhd
vhdl proc_common_v3_00_a C:\Xilinx\14.7\ISE_DS\EDK\hw\XilinxProcessorIPLib\pcores\proc_common_v3_00_a/hdl/vhdl/ld_arith_reg2.vhd
vhdl proc_common_v3_00_a C:\Xilinx\14.7\ISE_DS\EDK\hw\XilinxProcessorIPLib\pcores\proc_common_v3_00_a/hdl/vhdl/mux_onehot.vhd
vhdl proc_common_v3_00_a C:\Xilinx\14.7\ISE_DS\EDK\hw\XilinxProcessorIPLib\pcores\proc_common_v3_00_a/hdl/vhdl/or_bits.vhd
vhdl proc_common_v3_00_a C:\Xilinx\14.7\ISE_DS\EDK\hw\XilinxProcessorIPLib\pcores\proc_common_v3_00_a/hdl/vhdl/or_muxcy.vhd
vhdl proc_common_v3_00_a C:\Xilinx\14.7\ISE_DS\EDK\hw\XilinxProcessorIPLib\pcores\proc_common_v3_00_a/hdl/vhdl/or_gate.vhd
vhdl proc_common_v3_00_a C:\Xilinx\14.7\ISE_DS\EDK\hw\XilinxProcessorIPLib\pcores\proc_common_v3_00_a/hdl/vhdl/or_gate128.vhd
vhdl proc_common_v3_00_a C:\Xilinx\14.7\ISE_DS\EDK\hw\XilinxProcessorIPLib\pcores\proc_common_v3_00_a/hdl/vhdl/pf_adder_bit.vhd
vhdl proc_common_v3_00_a C:\Xilinx\14.7\ISE_DS\EDK\hw\XilinxProcessorIPLib\pcores\proc_common_v3_00_a/hdl/vhdl/pf_adder.vhd
vhdl proc_common_v3_00_a C:\Xilinx\14.7\ISE_DS\EDK\hw\XilinxProcessorIPLib\pcores\proc_common_v3_00_a/hdl/vhdl/pf_counter_bit.vhd
vhdl proc_common_v3_00_a C:\Xilinx\14.7\ISE_DS\EDK\hw\XilinxProcessorIPLib\pcores\proc_common_v3_00_a/hdl/vhdl/pf_counter.vhd
vhdl proc_common_v3_00_a C:\Xilinx\14.7\ISE_DS\EDK\hw\XilinxProcessorIPLib\pcores\proc_common_v3_00_a/hdl/vhdl/pf_counter_top.vhd
vhdl proc_common_v3_00_a C:\Xilinx\14.7\ISE_DS\EDK\hw\XilinxProcessorIPLib\pcores\proc_common_v3_00_a/hdl/vhdl/pf_occ_counter.vhd
vhdl proc_common_v3_00_a C:\Xilinx\14.7\ISE_DS\EDK\hw\XilinxProcessorIPLib\pcores\proc_common_v3_00_a/hdl/vhdl/pf_occ_counter_top.vhd
vhdl proc_common_v3_00_a C:\Xilinx\14.7\ISE_DS\EDK\hw\XilinxProcessorIPLib\pcores\proc_common_v3_00_a/hdl/vhdl/pf_dpram_select.vhd
vhdl proc_common_v3_00_a C:\Xilinx\14.7\ISE_DS\EDK\hw\XilinxProcessorIPLib\pcores\proc_common_v3_00_a/hdl/vhdl/pselect.vhd
vhdl proc_common_v3_00_a C:\Xilinx\14.7\ISE_DS\EDK\hw\XilinxProcessorIPLib\pcores\proc_common_v3_00_a/hdl/vhdl/pselect_mask.vhd
vhdl proc_common_v3_00_a C:\Xilinx\14.7\ISE_DS\EDK\hw\XilinxProcessorIPLib\pcores\proc_common_v3_00_a/hdl/vhdl/srl16_fifo.vhd
vhdl proc_common_v3_00_a C:\Xilinx\14.7\ISE_DS\EDK\hw\XilinxProcessorIPLib\pcores\proc_common_v3_00_a/hdl/vhdl/srl_fifo.vhd
vhdl proc_common_v3_00_a C:\Xilinx\14.7\ISE_DS\EDK\hw\XilinxProcessorIPLib\pcores\proc_common_v3_00_a/hdl/vhdl/srl_fifo2.vhd
vhdl proc_common_v3_00_a C:\Xilinx\14.7\ISE_DS\EDK\hw\XilinxProcessorIPLib\pcores\proc_common_v3_00_a/hdl/vhdl/srl_fifo3.vhd
vhdl proc_common_v3_00_a C:\Xilinx\14.7\ISE_DS\EDK\hw\XilinxProcessorIPLib\pcores\proc_common_v3_00_a/hdl/vhdl/srl_fifo_rbu.vhd
vhdl proc_common_v3_00_a C:\Xilinx\14.7\ISE_DS\EDK\hw\XilinxProcessorIPLib\pcores\proc_common_v3_00_a/hdl/vhdl/valid_be.vhd
vhdl proc_common_v3_00_a C:\Xilinx\14.7\ISE_DS\EDK\hw\XilinxProcessorIPLib\pcores\proc_common_v3_00_a/hdl/vhdl/or_with_enable_f.vhd
vhdl proc_common_v3_00_a C:\Xilinx\14.7\ISE_DS\EDK\hw\XilinxProcessorIPLib\pcores\proc_common_v3_00_a/hdl/vhdl/muxf_struct_f.vhd
vhdl proc_common_v3_00_a C:\Xilinx\14.7\ISE_DS\EDK\hw\XilinxProcessorIPLib\pcores\proc_common_v3_00_a/hdl/vhdl/cntr_incr_decr_addn_f.vhd
vhdl proc_common_v3_00_a C:\Xilinx\14.7\ISE_DS\EDK\hw\XilinxProcessorIPLib\pcores\proc_common_v3_00_a/hdl/vhdl/dynshreg_f.vhd
vhdl proc_common_v3_00_a C:\Xilinx\14.7\ISE_DS\EDK\hw\XilinxProcessorIPLib\pcores\proc_common_v3_00_a/hdl/vhdl/dynshreg_i_f.vhd
vhdl proc_common_v3_00_a C:\Xilinx\14.7\ISE_DS\EDK\hw\XilinxProcessorIPLib\pcores\proc_common_v3_00_a/hdl/vhdl/mux_onehot_f.vhd
vhdl proc_common_v3_00_a C:\Xilinx\14.7\ISE_DS\EDK\hw\XilinxProcessorIPLib\pcores\proc_common_v3_00_a/hdl/vhdl/srl_fifo_rbu_f.vhd
vhdl proc_common_v3_00_a C:\Xilinx\14.7\ISE_DS\EDK\hw\XilinxProcessorIPLib\pcores\proc_common_v3_00_a/hdl/vhdl/srl_fifo_f.vhd
vhdl proc_common_v3_00_a C:\Xilinx\14.7\ISE_DS\EDK\hw\XilinxProcessorIPLib\pcores\proc_common_v3_00_a/hdl/vhdl/compare_vectors_f.vhd
vhdl proc_common_v3_00_a C:\Xilinx\14.7\ISE_DS\EDK\hw\XilinxProcessorIPLib\pcores\proc_common_v3_00_a/hdl/vhdl/pselect_f.vhd
vhdl proc_common_v3_00_a C:\Xilinx\14.7\ISE_DS\EDK\hw\XilinxProcessorIPLib\pcores\proc_common_v3_00_a/hdl/vhdl/counter_f.vhd
vhdl proc_common_v3_00_a C:\Xilinx\14.7\ISE_DS\EDK\hw\XilinxProcessorIPLib\pcores\proc_common_v3_00_a/hdl/vhdl/or_muxcy_f.vhd
vhdl proc_common_v3_00_a C:\Xilinx\14.7\ISE_DS\EDK\hw\XilinxProcessorIPLib\pcores\proc_common_v3_00_a/hdl/vhdl/or_gate_f.vhd
vhdl proc_common_v3_00_a C:\Xilinx\14.7\ISE_DS\EDK\hw\XilinxProcessorIPLib\pcores\proc_common_v3_00_a/hdl/vhdl/soft_reset.vhd
vhdl proc_common_v3_00_a C:\Xilinx\14.7\ISE_DS\EDK\hw\XilinxProcessorIPLib\pcores\proc_common_v3_00_a/hdl/vhdl/family.vhd
vhdl proc_common_v3_00_a C:\Xilinx\14.7\ISE_DS\EDK\hw\XilinxProcessorIPLib\pcores\proc_common_v3_00_a/hdl/vhdl/family_support.vhd
vhdl proc_common_v3_00_a C:\Xilinx\14.7\ISE_DS\EDK\hw\XilinxProcessorIPLib\pcores\proc_common_v3_00_a/hdl/vhdl/coregen_comp_defs.vhd
vhdl proc_common_v3_00_a C:\Xilinx\14.7\ISE_DS\EDK\hw\XilinxProcessorIPLib\pcores\proc_common_v3_00_a/hdl/vhdl/common_types_pkg.vhd
vhdl proc_common_v3_00_a C:\Xilinx\14.7\ISE_DS\EDK\hw\XilinxProcessorIPLib\pcores\proc_common_v3_00_a/hdl/vhdl/proc_common_pkg.vhd
vhdl proc_common_v3_00_a C:\Xilinx\14.7\ISE_DS\EDK\hw\XilinxProcessorIPLib\pcores\proc_common_v3_00_a/hdl/vhdl/conv_funs_pkg.vhd
vhdl proc_common_v3_00_a C:\Xilinx\14.7\ISE_DS\EDK\hw\XilinxProcessorIPLib\pcores\proc_common_v3_00_a/hdl/vhdl/ipif_pkg.vhd
vhdl proc_common_v3_00_a C:\Xilinx\14.7\ISE_DS\EDK\hw\XilinxProcessorIPLib\pcores\proc_common_v3_00_a/hdl/vhdl/async_fifo_fg.vhd
vhdl proc_common_v3_00_a C:\Xilinx\14.7\ISE_DS\EDK\hw\XilinxProcessorIPLib\pcores\proc_common_v3_00_a/hdl/vhdl/sync_fifo_fg.vhd
vhdl proc_common_v3_00_a C:\Xilinx\14.7\ISE_DS\EDK\hw\XilinxProcessorIPLib\pcores\proc_common_v3_00_a/hdl/vhdl/basic_sfifo_fg.vhd
vhdl proc_common_v3_00_a C:\Xilinx\14.7\ISE_DS\EDK\hw\XilinxProcessorIPLib\pcores\proc_common_v3_00_a/hdl/vhdl/blk_mem_gen_wrapper.vhd
vhdl proc_common_v3_00_a C:\Xilinx\14.7\ISE_DS\EDK\hw\XilinxProcessorIPLib\pcores\proc_common_v3_00_a/hdl/vhdl/addsub.vhd
vhdl proc_common_v3_00_a C:\Xilinx\14.7\ISE_DS\EDK\hw\XilinxProcessorIPLib\pcores\proc_common_v3_00_a/hdl/vhdl/counter_bit.vhd
vhdl proc_common_v3_00_a C:\Xilinx\14.7\ISE_DS\EDK\hw\XilinxProcessorIPLib\pcores\proc_common_v3_00_a/hdl/vhdl/counter.vhd
vhdl proc_common_v3_00_a C:\Xilinx\14.7\ISE_DS\EDK\hw\XilinxProcessorIPLib\pcores\proc_common_v3_00_a/hdl/vhdl/direct_path_cntr.vhd
vhdl proc_common_v3_00_a C:\Xilinx\14.7\ISE_DS\EDK\hw\XilinxProcessorIPLib\pcores\proc_common_v3_00_a/hdl/vhdl/direct_path_cntr_ai.vhd
vhdl proc_common_v3_00_a C:\Xilinx\14.7\ISE_DS\EDK\hw\XilinxProcessorIPLib\pcores\proc_common_v3_00_a/hdl/vhdl/down_counter.vhd
vhdl proc_common_v3_00_a C:\Xilinx\14.7\ISE_DS\EDK\hw\XilinxProcessorIPLib\pcores\proc_common_v3_00_a/hdl/vhdl/eval_timer.vhd
vhdl proc_common_v3_00_a C:\Xilinx\14.7\ISE_DS\EDK\hw\XilinxProcessorIPLib\pcores\proc_common_v3_00_a/hdl/vhdl/inferred_lut4.vhd
vhdl proc_common_v3_00_a C:\Xilinx\14.7\ISE_DS\EDK\hw\XilinxProcessorIPLib\pcores\proc_common_v3_00_a/hdl/vhdl/ipif_steer.vhd
vhdl proc_common_v3_00_a C:\Xilinx\14.7\ISE_DS\EDK\hw\XilinxProcessorIPLib\pcores\proc_common_v3_00_a/hdl/vhdl/ipif_steer128.vhd
vhdl proc_common_v3_00_a C:\Xilinx\14.7\ISE_DS\EDK\hw\XilinxProcessorIPLib\pcores\proc_common_v3_00_a/hdl/vhdl/ipif_mirror128.vhd
vhdl proc_common_v3_00_a C:\Xilinx\14.7\ISE_DS\EDK\hw\XilinxProcessorIPLib\pcores\proc_common_v3_00_a/hdl/vhdl/ld_arith_reg.vhd
vhdl proc_common_v3_00_a C:\Xilinx\14.7\ISE_DS\EDK\hw\XilinxProcessorIPLib\pcores\proc_common_v3_00_a/hdl/vhdl/ld_arith_reg2.vhd
vhdl proc_common_v3_00_a C:\Xilinx\14.7\ISE_DS\EDK\hw\XilinxProcessorIPLib\pcores\proc_common_v3_00_a/hdl/vhdl/mux_onehot.vhd
vhdl proc_common_v3_00_a C:\Xilinx\14.7\ISE_DS\EDK\hw\XilinxProcessorIPLib\pcores\proc_common_v3_00_a/hdl/vhdl/or_bits.vhd
vhdl proc_common_v3_00_a C:\Xilinx\14.7\ISE_DS\EDK\hw\XilinxProcessorIPLib\pcores\proc_common_v3_00_a/hdl/vhdl/or_muxcy.vhd
vhdl proc_common_v3_00_a C:\Xilinx\14.7\ISE_DS\EDK\hw\XilinxProcessorIPLib\pcores\proc_common_v3_00_a/hdl/vhdl/or_gate.vhd
vhdl proc_common_v3_00_a C:\Xilinx\14.7\ISE_DS\EDK\hw\XilinxProcessorIPLib\pcores\proc_common_v3_00_a/hdl/vhdl/or_gate128.vhd
vhdl proc_common_v3_00_a C:\Xilinx\14.7\ISE_DS\EDK\hw\XilinxProcessorIPLib\pcores\proc_common_v3_00_a/hdl/vhdl/pf_adder_bit.vhd
vhdl proc_common_v3_00_a C:\Xilinx\14.7\ISE_DS\EDK\hw\XilinxProcessorIPLib\pcores\proc_common_v3_00_a/hdl/vhdl/pf_adder.vhd
vhdl proc_common_v3_00_a C:\Xilinx\14.7\ISE_DS\EDK\hw\XilinxProcessorIPLib\pcores\proc_common_v3_00_a/hdl/vhdl/pf_counter_bit.vhd
vhdl proc_common_v3_00_a C:\Xilinx\14.7\ISE_DS\EDK\hw\XilinxProcessorIPLib\pcores\proc_common_v3_00_a/hdl/vhdl/pf_counter.vhd
vhdl proc_common_v3_00_a C:\Xilinx\14.7\ISE_DS\EDK\hw\XilinxProcessorIPLib\pcores\proc_common_v3_00_a/hdl/vhdl/pf_counter_top.vhd
vhdl proc_common_v3_00_a C:\Xilinx\14.7\ISE_DS\EDK\hw\XilinxProcessorIPLib\pcores\proc_common_v3_00_a/hdl/vhdl/pf_occ_counter.vhd
vhdl proc_common_v3_00_a C:\Xilinx\14.7\ISE_DS\EDK\hw\XilinxProcessorIPLib\pcores\proc_common_v3_00_a/hdl/vhdl/pf_occ_counter_top.vhd
vhdl proc_common_v3_00_a C:\Xilinx\14.7\ISE_DS\EDK\hw\XilinxProcessorIPLib\pcores\proc_common_v3_00_a/hdl/vhdl/pf_dpram_select.vhd
vhdl proc_common_v3_00_a C:\Xilinx\14.7\ISE_DS\EDK\hw\XilinxProcessorIPLib\pcores\proc_common_v3_00_a/hdl/vhdl/pselect.vhd
vhdl proc_common_v3_00_a C:\Xilinx\14.7\ISE_DS\EDK\hw\XilinxProcessorIPLib\pcores\proc_common_v3_00_a/hdl/vhdl/pselect_mask.vhd
vhdl proc_common_v3_00_a C:\Xilinx\14.7\ISE_DS\EDK\hw\XilinxProcessorIPLib\pcores\proc_common_v3_00_a/hdl/vhdl/srl16_fifo.vhd
vhdl proc_common_v3_00_a C:\Xilinx\14.7\ISE_DS\EDK\hw\XilinxProcessorIPLib\pcores\proc_common_v3_00_a/hdl/vhdl/srl_fifo.vhd
vhdl proc_common_v3_00_a C:\Xilinx\14.7\ISE_DS\EDK\hw\XilinxProcessorIPLib\pcores\proc_common_v3_00_a/hdl/vhdl/srl_fifo2.vhd
vhdl proc_common_v3_00_a C:\Xilinx\14.7\ISE_DS\EDK\hw\XilinxProcessorIPLib\pcores\proc_common_v3_00_a/hdl/vhdl/srl_fifo3.vhd
vhdl proc_common_v3_00_a C:\Xilinx\14.7\ISE_DS\EDK\hw\XilinxProcessorIPLib\pcores\proc_common_v3_00_a/hdl/vhdl/srl_fifo_rbu.vhd
vhdl proc_common_v3_00_a C:\Xilinx\14.7\ISE_DS\EDK\hw\XilinxProcessorIPLib\pcores\proc_common_v3_00_a/hdl/vhdl/valid_be.vhd
vhdl proc_common_v3_00_a C:\Xilinx\14.7\ISE_DS\EDK\hw\XilinxProcessorIPLib\pcores\proc_common_v3_00_a/hdl/vhdl/or_with_enable_f.vhd
vhdl proc_common_v3_00_a C:\Xilinx\14.7\ISE_DS\EDK\hw\XilinxProcessorIPLib\pcores\proc_common_v3_00_a/hdl/vhdl/muxf_struct_f.vhd
vhdl proc_common_v3_00_a C:\Xilinx\14.7\ISE_DS\EDK\hw\XilinxProcessorIPLib\pcores\proc_common_v3_00_a/hdl/vhdl/cntr_incr_decr_addn_f.vhd
vhdl proc_common_v3_00_a C:\Xilinx\14.7\ISE_DS\EDK\hw\XilinxProcessorIPLib\pcores\proc_common_v3_00_a/hdl/vhdl/dynshreg_f.vhd
vhdl proc_common_v3_00_a C:\Xilinx\14.7\ISE_DS\EDK\hw\XilinxProcessorIPLib\pcores\proc_common_v3_00_a/hdl/vhdl/dynshreg_i_f.vhd
vhdl proc_common_v3_00_a C:\Xilinx\14.7\ISE_DS\EDK\hw\XilinxProcessorIPLib\pcores\proc_common_v3_00_a/hdl/vhdl/mux_onehot_f.vhd
vhdl proc_common_v3_00_a C:\Xilinx\14.7\ISE_DS\EDK\hw\XilinxProcessorIPLib\pcores\proc_common_v3_00_a/hdl/vhdl/srl_fifo_rbu_f.vhd
vhdl proc_common_v3_00_a C:\Xilinx\14.7\ISE_DS\EDK\hw\XilinxProcessorIPLib\pcores\proc_common_v3_00_a/hdl/vhdl/srl_fifo_f.vhd
vhdl proc_common_v3_00_a C:\Xilinx\14.7\ISE_DS\EDK\hw\XilinxProcessorIPLib\pcores\proc_common_v3_00_a/hdl/vhdl/compare_vectors_f.vhd
vhdl proc_common_v3_00_a C:\Xilinx\14.7\ISE_DS\EDK\hw\XilinxProcessorIPLib\pcores\proc_common_v3_00_a/hdl/vhdl/pselect_f.vhd
vhdl proc_common_v3_00_a C:\Xilinx\14.7\ISE_DS\EDK\hw\XilinxProcessorIPLib\pcores\proc_common_v3_00_a/hdl/vhdl/counter_f.vhd
vhdl proc_common_v3_00_a C:\Xilinx\14.7\ISE_DS\EDK\hw\XilinxProcessorIPLib\pcores\proc_common_v3_00_a/hdl/vhdl/or_muxcy_f.vhd
vhdl proc_common_v3_00_a C:\Xilinx\14.7\ISE_DS\EDK\hw\XilinxProcessorIPLib\pcores\proc_common_v3_00_a/hdl/vhdl/or_gate_f.vhd
vhdl proc_common_v3_00_a C:\Xilinx\14.7\ISE_DS\EDK\hw\XilinxProcessorIPLib\pcores\proc_common_v3_00_a/hdl/vhdl/soft_reset.vhd
vhdl axi_lite_ipif_v1_01_a C:\Xilinx\14.7\ISE_DS\EDK\hw\XilinxProcessorIPLib\pcores\axi_lite_ipif_v1_01_a/hdl/vhdl/address_decoder.vhd
vhdl axi_lite_ipif_v1_01_a C:\Xilinx\14.7\ISE_DS\EDK\hw\XilinxProcessorIPLib\pcores\axi_lite_ipif_v1_01_a/hdl/vhdl/slave_attachment.vhd
vhdl axi_lite_ipif_v1_01_a C:\Xilinx\14.7\ISE_DS\EDK\hw\XilinxProcessorIPLib\pcores\axi_lite_ipif_v1_01_a/hdl/vhdl/axi_lite_ipif.vhd
vhdl proc_common_v3_00_a C:\Xilinx\14.7\ISE_DS\EDK\hw\XilinxProcessorIPLib\pcores\proc_common_v3_00_a/hdl/vhdl/family.vhd
vhdl proc_common_v3_00_a C:\Xilinx\14.7\ISE_DS\EDK\hw\XilinxProcessorIPLib\pcores\proc_common_v3_00_a/hdl/vhdl/family_support.vhd
vhdl proc_common_v3_00_a C:\Xilinx\14.7\ISE_DS\EDK\hw\XilinxProcessorIPLib\pcores\proc_common_v3_00_a/hdl/vhdl/coregen_comp_defs.vhd
vhdl proc_common_v3_00_a C:\Xilinx\14.7\ISE_DS\EDK\hw\XilinxProcessorIPLib\pcores\proc_common_v3_00_a/hdl/vhdl/common_types_pkg.vhd
vhdl proc_common_v3_00_a C:\Xilinx\14.7\ISE_DS\EDK\hw\XilinxProcessorIPLib\pcores\proc_common_v3_00_a/hdl/vhdl/proc_common_pkg.vhd
vhdl proc_common_v3_00_a C:\Xilinx\14.7\ISE_DS\EDK\hw\XilinxProcessorIPLib\pcores\proc_common_v3_00_a/hdl/vhdl/conv_funs_pkg.vhd
vhdl proc_common_v3_00_a C:\Xilinx\14.7\ISE_DS\EDK\hw\XilinxProcessorIPLib\pcores\proc_common_v3_00_a/hdl/vhdl/ipif_pkg.vhd
vhdl proc_common_v3_00_a C:\Xilinx\14.7\ISE_DS\EDK\hw\XilinxProcessorIPLib\pcores\proc_common_v3_00_a/hdl/vhdl/async_fifo_fg.vhd
vhdl proc_common_v3_00_a C:\Xilinx\14.7\ISE_DS\EDK\hw\XilinxProcessorIPLib\pcores\proc_common_v3_00_a/hdl/vhdl/sync_fifo_fg.vhd
vhdl proc_common_v3_00_a C:\Xilinx\14.7\ISE_DS\EDK\hw\XilinxProcessorIPLib\pcores\proc_common_v3_00_a/hdl/vhdl/basic_sfifo_fg.vhd
vhdl proc_common_v3_00_a C:\Xilinx\14.7\ISE_DS\EDK\hw\XilinxProcessorIPLib\pcores\proc_common_v3_00_a/hdl/vhdl/blk_mem_gen_wrapper.vhd
vhdl proc_common_v3_00_a C:\Xilinx\14.7\ISE_DS\EDK\hw\XilinxProcessorIPLib\pcores\proc_common_v3_00_a/hdl/vhdl/addsub.vhd
vhdl proc_common_v3_00_a C:\Xilinx\14.7\ISE_DS\EDK\hw\XilinxProcessorIPLib\pcores\proc_common_v3_00_a/hdl/vhdl/counter_bit.vhd
vhdl proc_common_v3_00_a C:\Xilinx\14.7\ISE_DS\EDK\hw\XilinxProcessorIPLib\pcores\proc_common_v3_00_a/hdl/vhdl/counter.vhd
vhdl proc_common_v3_00_a C:\Xilinx\14.7\ISE_DS\EDK\hw\XilinxProcessorIPLib\pcores\proc_common_v3_00_a/hdl/vhdl/direct_path_cntr.vhd
vhdl proc_common_v3_00_a C:\Xilinx\14.7\ISE_DS\EDK\hw\XilinxProcessorIPLib\pcores\proc_common_v3_00_a/hdl/vhdl/direct_path_cntr_ai.vhd
vhdl proc_common_v3_00_a C:\Xilinx\14.7\ISE_DS\EDK\hw\XilinxProcessorIPLib\pcores\proc_common_v3_00_a/hdl/vhdl/down_counter.vhd
vhdl proc_common_v3_00_a C:\Xilinx\14.7\ISE_DS\EDK\hw\XilinxProcessorIPLib\pcores\proc_common_v3_00_a/hdl/vhdl/eval_timer.vhd
vhdl proc_common_v3_00_a C:\Xilinx\14.7\ISE_DS\EDK\hw\XilinxProcessorIPLib\pcores\proc_common_v3_00_a/hdl/vhdl/inferred_lut4.vhd
vhdl proc_common_v3_00_a C:\Xilinx\14.7\ISE_DS\EDK\hw\XilinxProcessorIPLib\pcores\proc_common_v3_00_a/hdl/vhdl/ipif_steer.vhd
vhdl proc_common_v3_00_a C:\Xilinx\14.7\ISE_DS\EDK\hw\XilinxProcessorIPLib\pcores\proc_common_v3_00_a/hdl/vhdl/ipif_steer128.vhd
vhdl proc_common_v3_00_a C:\Xilinx\14.7\ISE_DS\EDK\hw\XilinxProcessorIPLib\pcores\proc_common_v3_00_a/hdl/vhdl/ipif_mirror128.vhd
vhdl proc_common_v3_00_a C:\Xilinx\14.7\ISE_DS\EDK\hw\XilinxProcessorIPLib\pcores\proc_common_v3_00_a/hdl/vhdl/ld_arith_reg.vhd
vhdl proc_common_v3_00_a C:\Xilinx\14.7\ISE_DS\EDK\hw\XilinxProcessorIPLib\pcores\proc_common_v3_00_a/hdl/vhdl/ld_arith_reg2.vhd
vhdl proc_common_v3_00_a C:\Xilinx\14.7\ISE_DS\EDK\hw\XilinxProcessorIPLib\pcores\proc_common_v3_00_a/hdl/vhdl/mux_onehot.vhd
vhdl proc_common_v3_00_a C:\Xilinx\14.7\ISE_DS\EDK\hw\XilinxProcessorIPLib\pcores\proc_common_v3_00_a/hdl/vhdl/or_bits.vhd
vhdl proc_common_v3_00_a C:\Xilinx\14.7\ISE_DS\EDK\hw\XilinxProcessorIPLib\pcores\proc_common_v3_00_a/hdl/vhdl/or_muxcy.vhd
vhdl proc_common_v3_00_a C:\Xilinx\14.7\ISE_DS\EDK\hw\XilinxProcessorIPLib\pcores\proc_common_v3_00_a/hdl/vhdl/or_gate.vhd
vhdl proc_common_v3_00_a C:\Xilinx\14.7\ISE_DS\EDK\hw\XilinxProcessorIPLib\pcores\proc_common_v3_00_a/hdl/vhdl/or_gate128.vhd
vhdl proc_common_v3_00_a C:\Xilinx\14.7\ISE_DS\EDK\hw\XilinxProcessorIPLib\pcores\proc_common_v3_00_a/hdl/vhdl/pf_adder_bit.vhd
vhdl proc_common_v3_00_a C:\Xilinx\14.7\ISE_DS\EDK\hw\XilinxProcessorIPLib\pcores\proc_common_v3_00_a/hdl/vhdl/pf_adder.vhd
vhdl proc_common_v3_00_a C:\Xilinx\14.7\ISE_DS\EDK\hw\XilinxProcessorIPLib\pcores\proc_common_v3_00_a/hdl/vhdl/pf_counter_bit.vhd
vhdl proc_common_v3_00_a C:\Xilinx\14.7\ISE_DS\EDK\hw\XilinxProcessorIPLib\pcores\proc_common_v3_00_a/hdl/vhdl/pf_counter.vhd
vhdl proc_common_v3_00_a C:\Xilinx\14.7\ISE_DS\EDK\hw\XilinxProcessorIPLib\pcores\proc_common_v3_00_a/hdl/vhdl/pf_counter_top.vhd
vhdl proc_common_v3_00_a C:\Xilinx\14.7\ISE_DS\EDK\hw\XilinxProcessorIPLib\pcores\proc_common_v3_00_a/hdl/vhdl/pf_occ_counter.vhd
vhdl proc_common_v3_00_a C:\Xilinx\14.7\ISE_DS\EDK\hw\XilinxProcessorIPLib\pcores\proc_common_v3_00_a/hdl/vhdl/pf_occ_counter_top.vhd
vhdl proc_common_v3_00_a C:\Xilinx\14.7\ISE_DS\EDK\hw\XilinxProcessorIPLib\pcores\proc_common_v3_00_a/hdl/vhdl/pf_dpram_select.vhd
vhdl proc_common_v3_00_a C:\Xilinx\14.7\ISE_DS\EDK\hw\XilinxProcessorIPLib\pcores\proc_common_v3_00_a/hdl/vhdl/pselect.vhd
vhdl proc_common_v3_00_a C:\Xilinx\14.7\ISE_DS\EDK\hw\XilinxProcessorIPLib\pcores\proc_common_v3_00_a/hdl/vhdl/pselect_mask.vhd
vhdl proc_common_v3_00_a C:\Xilinx\14.7\ISE_DS\EDK\hw\XilinxProcessorIPLib\pcores\proc_common_v3_00_a/hdl/vhdl/srl16_fifo.vhd
vhdl proc_common_v3_00_a C:\Xilinx\14.7\ISE_DS\EDK\hw\XilinxProcessorIPLib\pcores\proc_common_v3_00_a/hdl/vhdl/srl_fifo.vhd
vhdl proc_common_v3_00_a C:\Xilinx\14.7\ISE_DS\EDK\hw\XilinxProcessorIPLib\pcores\proc_common_v3_00_a/hdl/vhdl/srl_fifo2.vhd
vhdl proc_common_v3_00_a C:\Xilinx\14.7\ISE_DS\EDK\hw\XilinxProcessorIPLib\pcores\proc_common_v3_00_a/hdl/vhdl/srl_fifo3.vhd
vhdl proc_common_v3_00_a C:\Xilinx\14.7\ISE_DS\EDK\hw\XilinxProcessorIPLib\pcores\proc_common_v3_00_a/hdl/vhdl/srl_fifo_rbu.vhd
vhdl proc_common_v3_00_a C:\Xilinx\14.7\ISE_DS\EDK\hw\XilinxProcessorIPLib\pcores\proc_common_v3_00_a/hdl/vhdl/valid_be.vhd
vhdl proc_common_v3_00_a C:\Xilinx\14.7\ISE_DS\EDK\hw\XilinxProcessorIPLib\pcores\proc_common_v3_00_a/hdl/vhdl/or_with_enable_f.vhd
vhdl proc_common_v3_00_a C:\Xilinx\14.7\ISE_DS\EDK\hw\XilinxProcessorIPLib\pcores\proc_common_v3_00_a/hdl/vhdl/muxf_struct_f.vhd
vhdl proc_common_v3_00_a C:\Xilinx\14.7\ISE_DS\EDK\hw\XilinxProcessorIPLib\pcores\proc_common_v3_00_a/hdl/vhdl/cntr_incr_decr_addn_f.vhd
vhdl proc_common_v3_00_a C:\Xilinx\14.7\ISE_DS\EDK\hw\XilinxProcessorIPLib\pcores\proc_common_v3_00_a/hdl/vhdl/dynshreg_f.vhd
vhdl proc_common_v3_00_a C:\Xilinx\14.7\ISE_DS\EDK\hw\XilinxProcessorIPLib\pcores\proc_common_v3_00_a/hdl/vhdl/dynshreg_i_f.vhd
vhdl proc_common_v3_00_a C:\Xilinx\14.7\ISE_DS\EDK\hw\XilinxProcessorIPLib\pcores\proc_common_v3_00_a/hdl/vhdl/mux_onehot_f.vhd
vhdl proc_common_v3_00_a C:\Xilinx\14.7\ISE_DS\EDK\hw\XilinxProcessorIPLib\pcores\proc_common_v3_00_a/hdl/vhdl/srl_fifo_rbu_f.vhd
vhdl proc_common_v3_00_a C:\Xilinx\14.7\ISE_DS\EDK\hw\XilinxProcessorIPLib\pcores\proc_common_v3_00_a/hdl/vhdl/srl_fifo_f.vhd
vhdl proc_common_v3_00_a C:\Xilinx\14.7\ISE_DS\EDK\hw\XilinxProcessorIPLib\pcores\proc_common_v3_00_a/hdl/vhdl/compare_vectors_f.vhd
vhdl proc_common_v3_00_a C:\Xilinx\14.7\ISE_DS\EDK\hw\XilinxProcessorIPLib\pcores\proc_common_v3_00_a/hdl/vhdl/pselect_f.vhd
vhdl proc_common_v3_00_a C:\Xilinx\14.7\ISE_DS\EDK\hw\XilinxProcessorIPLib\pcores\proc_common_v3_00_a/hdl/vhdl/counter_f.vhd
vhdl proc_common_v3_00_a C:\Xilinx\14.7\ISE_DS\EDK\hw\XilinxProcessorIPLib\pcores\proc_common_v3_00_a/hdl/vhdl/or_muxcy_f.vhd
vhdl proc_common_v3_00_a C:\Xilinx\14.7\ISE_DS\EDK\hw\XilinxProcessorIPLib\pcores\proc_common_v3_00_a/hdl/vhdl/or_gate_f.vhd
vhdl proc_common_v3_00_a C:\Xilinx\14.7\ISE_DS\EDK\hw\XilinxProcessorIPLib\pcores\proc_common_v3_00_a/hdl/vhdl/soft_reset.vhd
vhdl interrupt_control_v2_01_a C:\Xilinx\14.7\ISE_DS\EDK\hw\XilinxProcessorIPLib\pcores\interrupt_control_v2_01_a/hdl/vhdl/interrupt_control.vhd
vhdl axi_gpio_v1_01_b C:\Xilinx\14.7\ISE_DS\EDK\hw\XilinxProcessorIPLib\pcores\axi_gpio_v1_01_b/hdl/vhdl/gpio_core.vhd
vhdl axi_gpio_v1_01_b C:\Xilinx\14.7\ISE_DS\EDK\hw\XilinxProcessorIPLib\pcores\axi_gpio_v1_01_b/hdl/vhdl/axi_gpio.vhd
vhdl work ../hdl/system_axi_gpio_switch_wrapper.vhd
