C:\Personal\School\Lab_3\EDK\implementation\system.ngc 1401144508
C:/Personal/School/Lab_3/EDK/implementation/system_processing_system7_0_wrapper.ngc 1401144376
C:/Personal/School/Lab_3/EDK/implementation/system_axi_gpio_button_wrapper.ngc 1401144376
C:/Personal/School/Lab_3/EDK/implementation/system_mcu_driver_wrapper.ngc 1401144413
C:/Personal/School/Lab_3/EDK/implementation/system_axi_gpio_switch_wrapper.ngc 1401144376
C:/Personal/School/Lab_3/EDK/implementation/system_mcu_uart_wrapper.ngc 1401144376
C:/Personal/School/Lab_3/EDK/implementation/system_tx_clock_generator_wrapper.ngc 1401144450
C:/Personal/School/Lab_3/EDK/implementation/system_axi_interconnect_1_wrapper.ngc 1401144376
C:/Personal/School/Lab_3/EDK/implementation/system_axi_gpio_led_wrapper.ngc 1401144376
C:/Personal/School/Lab_3/EDK/implementation/system_dac_driver_wrapper.ngc 1401144401
C:/Personal/School/Lab_3/EDK/implementation/system_tx_fifo_wrapper.ngc 1401144429
C:/Personal/School/Lab_3/EDK/implementation/system_ofdm_transceiver_hdl_tx_wrapper.ngc 1401144459
OK
