vhdl tx_fifo_pcore_v1_00_a C:\Personal\School\Lab_3\EDK\pcores\tx_fifo_pcore_v1_00_a/hdl/vhdl/SimpleDualPortRAM_2048x8b.vhd
vhdl tx_fifo_pcore_v1_00_a C:\Personal\School\Lab_3\EDK\pcores\tx_fifo_pcore_v1_00_a/hdl/vhdl/fifo_ram.vhd
vhdl tx_fifo_pcore_v1_00_a C:\Personal\School\Lab_3\EDK\pcores\tx_fifo_pcore_v1_00_a/hdl/vhdl/tx_fifo_fixpt.vhd
vhdl tx_fifo_pcore_v1_00_a C:\Personal\School\Lab_3\EDK\pcores\tx_fifo_pcore_v1_00_a/hdl/vhdl/tx_fifo_pcore_dut.vhd
vhdl tx_fifo_pcore_v1_00_a C:\Personal\School\Lab_3\EDK\pcores\tx_fifo_pcore_v1_00_a/hdl/vhdl/tx_fifo_pcore_axi_lite_module.vhd
vhdl tx_fifo_pcore_v1_00_a C:\Personal\School\Lab_3\EDK\pcores\tx_fifo_pcore_v1_00_a/hdl/vhdl/tx_fifo_pcore_addr_decoder.vhd
vhdl tx_fifo_pcore_v1_00_a C:\Personal\School\Lab_3\EDK\pcores\tx_fifo_pcore_v1_00_a/hdl/vhdl/tx_fifo_pcore_axi_lite.vhd
vhdl tx_fifo_pcore_v1_00_a C:\Personal\School\Lab_3\EDK\pcores\tx_fifo_pcore_v1_00_a/hdl/vhdl/tx_fifo_pcore.vhd
vhdl work ../hdl/system_tx_fifo_wrapper.vhd
